孩子一进空调屋就会咳嗽是怎么回事	用症状问病
外阴瘙痒一段时间有什么膏药可以外涂？	用病问治疗方案
脖子酸痛是颈椎病还是颈肌劳损	用症状问病
有痔疮平时不发作，突然发作了要去医院吗	用病问治疗方案
奶奶一直说眼睛痒这是啥原因	用症状问病
耳朵耳屎多黄色是否中耳炎	用症状问病
月经量少怎么用药调理好	用症状问病
口干口苦还有口臭是啥问题	用症状问病
手臂有水泡是不是疱疹	用症状问病
做爱不硬是不是阳痿	用症状问病
宝宝的冠状缝很明显是怎么造成的呢	用症状问病
长红疮这种情况怎么办啊	用症状问病
怎么可以祛疤？	用病问治疗方案
梅毒那一项阴性是有没有感染呀？	用病问治疗方案
脾肾阳虚用什么药物好呢	用病问治疗方案
胃疼的厉害吃什么药	用病问治疗方案
腰部两侧起痘痘什么原因引起的	用症状问病
脸上起了一些小红色的小痘痘是啥东西	用症状问病
小三阳这个要怎么治疗啊	用病问治疗方案
宝宝眼睛起了个红疙瘩是怎么回事	用症状问病
脚底脱皮严重是怎么回事	用症状问病
人流后检查有囊肿，怎么办？	用病问治疗方案
包皮和肚脐有透明米粒样该怎么办	用症状问病
感冒了鼻子不透气吃什么药？	用病问治疗方案
手指头麻一直不好怎么回事	用症状问病
手指头反复掉皮有什么治疗方法	用症状问病
怀孕了用什么方法打掉好呢？	用病问治疗方案
产后35天恶露时有时无能吃益母草胶囊吗	用病问治疗方案
宝宝发烧后呕吐是不是必须要吃抗细菌的药呢	用症状问病
阴茎起痘痘是不是性病	用症状问病
宝宝脸上长一颗颗的东西用碘伏就可以吗	用病问治疗方案
阴道附近长了很多痦子是什么	用症状问病
眼睛发黄很久了是什么原因吗	用症状问病
宝宝的脚趾甲是灰指甲怎么办能治好吗	用病问治疗方案
白内障术后有时流泪会影响眼睛吗	用病问治疗方案
低烧四个多月了怎么治疗？	用病问治疗方案
尿道不舒服总尿不完的感觉是怎么回事	用症状问病
肛门长了个大包不疼不痒怎么办啊	用症状问病
一岁宝宝吐奶后低烧退烧后大腿有红色斑点是什么原因	用症状问病
宝宝得了手足口病，好害怕	用病问治疗方案
太阳嗮出疙瘩一片紫外线过敏用点什么药膏？	用病问治疗方案
感觉胃胀痛怎么治疗啊？	用病问治疗方案
烫伤抹药后伤口发干还需要去医院吗？	用病问治疗方案
腰椎病怎么办？	用病问治疗方案
糜烂性胃炎如何用药啊？	用病问治疗方案
包皮手术后水肿严重要紧不	用症状问病
婴儿热感冒怎么办？	用病问治疗方案
打嗝胃部不舒服恶心会是胃癌吗	用症状问病
突然发现宝宝嘴牙龈肿得太厉害了啥原因	用症状问病
去医院做什么检查可以确怀孕啊？	用病问治疗方案
急性肠胃炎吃什么药能好一点	用病问治疗方案
抑郁症感觉快要坚持不住了这要怎么办	用病问治疗方案
胃一阵一阵的疼还会放屁是怎么回事	用症状问病
孩子疱疹咽颊炎怎么治疗？	用病问治疗方案
荨麻疹有什么好的方法治疗吗？	用病问治疗方案
有尿道炎，下面有味还痒	用病问治疗方案
有痔疮不舒服有什么治疗办法吗	用病问治疗方案
慢性哮喘能治好吗？	用病问治疗方案
孕25+5肚子老是微疼怎么回事	用症状问病
前胸疼痛是怎么回事	用症状问病
小孩孩子急性荨麻疹	用病问治疗方案
孩子眼睛得了结膜炎，可以根治么？	用病问治疗方案
斜视怎么治疗	用病问治疗方案
龟头小红点痒用什么药？	用病问治疗方案
指甲有点凹凸不平是什么问题呢	用症状问病
阴唇长红色小疙瘩用什么擦洗涂抹	用症状问病
疥子表皮亏烂了脓没出来用什么药好呢？	用病问治疗方案
盆腔囊肿需要手术吗？	用病问治疗方案
前列腺发炎怎么办？	用病问治疗方案
皮肤上有白色小疙瘩怎么用药调理好	用症状问病
近视可以激光治疗吗	用病问治疗方案
同房感觉宫颈疼是怎么回事	用症状问病
一直都严重失眠失眠到头痛有什么好的办法吗	用病问治疗方案
孕期为什么会有淡红色分泌物呢	用症状问病
嘴上有许多小点是啥东西	用症状问病
做的药物流产排出了孕囊肚子疼的厉害怎么回事	用症状问病
体检查出轻度脂肪肝要吃药治疗吗？	用病问治疗方案
过敏皮疹可以做无痛胃镜吗	用病问治疗方案
大便棕色偏绿日常怎么调理呢	用症状问病
解尿支原体显示阳性要怎么治疗呢？	用病问治疗方案
发现有黑点包皮上还有红点是为啥	用症状问病
鼻窦炎喉咙很沙哑还有拉肚子这要怎么办	用病问治疗方案
聚焦吃力眼花用眼药水能缓解吗	用病问治疗方案
过敏性紫癜复发用芦丁可以吗	用病问治疗方案
有性生活过后一直咳嗽一个多月没好了啥情况	用症状问病
有胆囊结石可不可以不做手术呢	用病问治疗方案
发烧诊断是疱疹性咽峡炎如何治	用病问治疗方案
张口瞬目综合征怎么治疗？	用病问治疗方案
患有阴道炎要如何治疗	用病问治疗方案
甲沟炎一般是不是自己好不了？	用病问治疗方案
说头晕过了一会说想吐是为什么呢	用症状问病
宝宝吃了过期酸奶拉稀发高烧是食物中毒了吗	用症状问病
多囊卵巢要怎么治疗啊？	用病问治疗方案
低血压最近老是突然晕倒怎么办	用病问治疗方案
手臂上长痘痘涂什么药好呢	用症状问病
阴茎皮下长粉刺样东西是什么性病吗	用症状问病
白发区域长出一些黑头发是什么原因	用症状问病
慢性前列腺炎要怎么治疗	用病问治疗方案
宝宝下体有黄色分泌物是尿道感染的症状吗	用症状问病
输卵管结核怎么办呢？	用病问治疗方案
烫伤的疤痕能不能恢复成正常的皮肤？	用病问治疗方案
耳朵有点堵的感觉这是为啥啊	用症状问病
做爱时顶不到子宫是阴茎短小吗	用症状问病
胰腺炎很痛	用病问治疗方案
滴虫性阴道炎加细菌性阴道炎需要怎么治疗？	用病问治疗方案
毛囊炎是怎么引起的怎么治疗好？	用病问治疗方案
暴露隐私部位会有性快感这是露癖吗	用症状问病
乳腺增生相关问题求解答？	用病问治疗方案
手上生红斑用什么药？	用病问治疗方案
淋巴结发炎淋巴按摩有害吗	用病问治疗方案
阴道口下方有块肉从下面伸出来不会是息肉吧	用症状问病
总是月经不调怎么办？	用病问治疗方案
尖锐湿疣会传染吗	用病问治疗方案
前列腺炎可以吃药治愈吗	用病问治疗方案
急性肠胃炎吃什么药能好一点？	用病问治疗方案
嘴巴周围就红了都肿了怎么办？	用症状问病
喝啤酒后浑身酸痛肚子疼痛是因为什么怎么缓解	用症状问病
浅表性胃炎轻微萎缩胃炎如何治疗	用病问治疗方案
近视眼手术可以回复吗？	用病问治疗方案
包皮上有白色小点儿的是什么病症呢	用症状问病
宝宝湿疹应该怎么办才好呢？	用病问治疗方案
阴茎膀胱痒用什么药好	用症状问病
阴虱病有什么办法可以治？	用病问治疗方案
大便出血没有排便不通畅怎么办	用症状问病
发现左侧输卵管近端闭塞咋办	用病问治疗方案
肾虚吃点什么药？	用病问治疗方案
看电影时呼吸很难受怎么回事	用症状问病
颈椎僵硬难受可不可以根治呢？	用病问治疗方案
感冒呼吸道感染到现在还是有白痰胸闷是什么原因啊？	用病问治疗方案
疱疹性结膜炎有哪些症状？	用病问治疗方案
孕五个月严重便秘怎么办？	用病问治疗方案
孩子病毒感染该怎么办?	用病问治疗方案
宝宝拉绿色泡沫便便怎么调理好呢	用症状问病
一直反复肚子痛怎么办	用症状问病
宝宝腹泻拉绿色便便是怎么导致的	用症状问病
嗓子疼流鼻涕低烧吃什么药呢	用症状问病
请问我的性功能减退和手淫有关系吗？	用病问治疗方案
早泄如何治疗	用病问治疗方案
阳痿早泄怎么办?	用病问治疗方案
肚子不舒服怎么回事	用症状问病
大便有点黑是怎么造成的呢	用症状问病
白内障1年了怎么办	用病问治疗方案
手没一点力气指头关节痛是缺钾吗	用症状问病
性功能障碍怎么治疗	用病问治疗方案
鸡鸡口变小需要割包皮吗	用症状问病
宝宝吃阿莫西林后浑身起疙瘩是过敏了吗	用症状问病
腹股沟那里有硬疙瘩是什么重要的病嘛	用症状问病
不知道胃痛是不是会引起焦虑的症状呢？	用病问治疗方案
瞌睡症怎么办？	用病问治疗方案
宝宝尿尿的地方红肿发痒是怎么引起的	用症状问病
浅表性胃炎用什么药物好呢	用病问治疗方案
宝宝得了手足口病起皮疹要怎么办？	用病问治疗方案
甲状腺右侧叶结节性甲状腺肿是什么病？	用病问治疗方案
急性腰椎间盘突出发作初该如何正确处理？	用病问治疗方案
脚外裸骨质疏松咋回事？	用病问治疗方案
早泄要怎么治疗？	用病问治疗方案
男朋友最低烧反复不断，血象高用住院么？	用病问治疗方案
背上长痘痘和条痕是怎么造成的	用症状问病
头发脱落是什么原因	用症状问病
霉菌性阴道炎治疗时可以做孕期检查	用病问治疗方案
体检检查出肝细胞受损是什么意思？	用病问治疗方案
大便上有辣椒片样的东西是便血吗	用症状问病
手臂起红色小点发痒跟吃的有关吗	用症状问病
大阴唇长了粒东西同房痛该怎么办	用症状问病
天天大便不成型什么病引起的	用症状问病
阴囊上的小疙瘩有什么办法消掉	用症状问病
孩子手足口老是低烧怎么办？	用病问治疗方案
月经提前颜色深怎么才能调理好呢	用症状问病
嘴里没味儿口水多去医院要挂什么科呢	用症状问病
脚后跟突然痒用什么药好	用症状问病
偶尔胸闷怎么回事啊	用症状问病
牙龈肿痛刷牙长出血通过治疗可以吗？	用病问治疗方案
算得上好几年便秘患者特别严重怎么办	用病问治疗方案
脚起疹子发痒是荨麻疹吗	用症状问病
得痔疮大约二十年便秘咋办	用病问治疗方案
睾丸上有条状物不疼不痒要不要紧	用症状问病
阴道炎反复发作是没有根治吗？	用病问治疗方案
艾滋病的传播途径有哪些？	用病问治疗方案
查处甲状腺结节左边一个右边一个怎么办	用病问治疗方案
肛门口长痔疮手术会不会痛呢	用病问治疗方案
子宫后位有什么影响跟症状	用病问治疗方案
有轻微细菌阴道炎12hrhpv是阳性要紧不？	用病问治疗方案
湿疹怎么办？	用病问治疗方案
胸中间有疙瘩是什么原因	用症状问病
肚子每天大便两三次肚子经常排气是什么原因	用症状问病
左眼没有右眼清晰这是为啥	用症状问病
我腿上有个烫伤起的泡，可不可以挑破？	用病问治疗方案
脚指甲全部变黄会感染真菌得灰指甲吗	用症状问病
夏天突然天一热脖子上胳膊上就起红点是什么原因	用症状问病
喉咙胸口处胸闷打嗝是什么回事	用症状问病
想检查是否得尖锐湿疣该检查什么？	用病问治疗方案
小腿局部红肿这是啥原因啊	用症状问病
孩子出汗厉害唇色淡舌苔厚是怎么回事	用症状问病
睾酮低有什么不舒服的症状么？	用病问治疗方案
睾丸炎用什么药比较管用	用病问治疗方案
脚肿了这是怎么回事啊	用症状问病
手上起了一些疙瘩是啥病	用症状问病
每到早上6点左右从胃部一直到后背感觉疼是啥原因	用症状问病
肚子和大腿根长浅粉色红点是皮肤病吗	用症状问病
后脖子长了很多红色的疙瘩是什么东西	用症状问病
右边锁骨上方长了个包会是淋巴结肿大吗	用症状问病
喉咙痛引起的低烧怎么办？	用病问治疗方案
连续几天胃胀有沉重感这是为啥	用症状问病
预产期了，肚子一直隐隐的痛，正常吗？	用症状问病
去医院检查有阴道炎阴道清洁度2度严重么？	用病问治疗方案
左边头痛眼睛痛还流鼻血怎么办	用症状问病
发现了右侧暖巢囊肿如何治疗	用病问治疗方案
孩子发烧后头上脸部长疙瘩是荨麻疹吗	用症状问病
检查没有孕囊，卵巢有积液是怎么回事？	用病问治疗方案
阴道炎老不好白带稀薄有小气泡怎么办？	用病问治疗方案
屁股那长个疙瘩说是脓肿怎么治疗	用病问治疗方案
现在月经还没来是什么原因	用症状问病
阴道炎和宫颈糜烂怎么治疗？	用病问治疗方案
无痛人流后肚痛腰痛少量血失眠便秘该怎么办	用症状问病
慢性化脓性中耳炎要如何治疗？	用病问治疗方案
屁股上有很多红泡泡用999可以吗	用症状问病
同房时出了很多鲜血这是怎么了	用症状问病
最近特别能吃吃完后腹胀怎么调理好呢	用症状问病
老是屁股尾尖痛是怎么引起的	用症状问病
皮下软组织感染怎么治疗？	用病问治疗方案
脓胞疮是什么怎么治疗？	用病问治疗方案
男性生殖器官出现红疹怎样才能治好	用症状问病
咽炎咽部黏膜充血需要做手术吗	用病问治疗方案
肺结核一直没好怎么办？	用病问治疗方案
阴道炎外阴痒是怎么引起的呢	用症状问病
这里一张嘴就会痛怎么回事	用症状问病
胸口一直痛不想吃饭是什么病呢	用症状问病
大便很多感觉她一直在撑肚子怎么办	用症状问病
肾阴阳两虚怎么办？	用病问治疗方案
支气管炎咳嗽一个星期干咳怎么办？	用病问治疗方案
指甲总是发紫这是什么情况	用症状问病
屁股后面反复红痒是怎么回事呢	用症状问病
中耳炎就是滴药就可以了吗	用病问治疗方案
月经前一周总是反复爆痘怎么办	用症状问病
胸闷气短是不是和乳腺增生有关	用症状问病
骨折错位怎么办？	用病问治疗方案
鼻窦炎一个星期喝中药不起作用有其他办法吗	用病问治疗方案
中暑发高烧不出汗怎么办	用病问治疗方案
起疙瘩很痒是艾滋病引起的吗	用症状问病
下巴有个胎记会不会病变呢	用症状问病
手上和腿上长有长蚊子包一样的红色小包是啥东	用症状问病
膝盖边上出现一个包是什么病啊	用症状问病
流产都一个多月了总是断断续续的有血要紧不	用病问治疗方案
人流清宫后五天还有点血是怎么回事啊	用症状问病
在上眼皮睫毛里面张了一颗小疙瘩是为啥	用症状问病
宝宝胳膊和大腿上起小红点儿应该怎么护理呢	用症状问病
吃烤鸡后嘴唇上长了像烫伤一样的水泡怎么缓解呢	用症状问病
宝宝喝完奶打嗝吐奶了正常么	用症状问病
感冒咳嗽厉害是支气管炎吗	用症状问病
上吐下泻这是什么原因导致的	用症状问病
孕期同房出血是怎么造成的	用症状问病
宝宝吃太多吐奶了怎么办	用症状问病
顺产一周侧切口疼是不是发炎了	用症状问病
宝宝两岁半有寻麻疹怎么使用药物？	用病问治疗方案
大腿正面位置起了一些小红紫色的点点是什么啊	用症状问病
戴隐形眼镜之后眼睛发炎，我要怎么做呢？	用病问治疗方案
胃痛总觉得很饿是怎么回事	用症状问病
小便疼痛可不以可以排除妇科疾病呢	用症状问病
我是重度宫劲麋烂，请问用药还是手术好呢？	用病问治疗方案
上午10点左右脸部突然发红发热体温37咋国人	用症状问病
龟头敏感度过高怎么治疗？	用病问治疗方案
疱疹性咽峡炎持续高烧需要输液吗	用病问治疗方案
嘴里有空牙导致的咬合不好补牙会不会缓解	用病问治疗方案
孕期有啡色分必物咋回事	用症状问病
宝宝反复发烧有抽搐怎么治疗	用症状问病
脖子发紧穿脖领子衣服很不舒服怎么回事	用症状问病
高血糖应该怎么办？	用病问治疗方案
腹痛腹泻头晕恶心呕吐发烧是受凉了吗	用症状问病
有孕囊没胎心胎芽有流产的可能吗	用症状问病
紫癜7月份抠鼻子流了几次鼻血怎么办	用病问治疗方案
那个白点是尖锐湿疣吗	用症状问病
鼻子闻到刺激性的气味就不停打喷嚏是鼻炎	用症状问病
阴道出现褐色分泌物是不是炎症问题	用症状问病
嘴唇有点发紫什么原因	用症状问病
龟头红疹子用什么药物治疗	用症状问病
尖锐湿疣只要长出来了下就一定会疼会痒会流脓流血吗？	用病问治疗方案
内裤总是很湿该怎么改善呢	用症状问病
宝宝肠胃炎吃什么药？	用病问治疗方案
脸上有小痘痘消不下去怎么办	用症状问病
阴道有褐色分泌物该怎么处理呢	用症状问病
轻微乳腺增生可以不吃药吗？	用病问治疗方案
咳嗽有痰怎么用药比较好呢	用症状问病
左肾不舒服不会是膀胱癌吧	用症状问病
小朋友的便便都是很稀的这是为啥	用症状问病
龟头下面长了类似斑装的东西是什么	用症状问病
腹水疑似布加氏综合症该怎么治疗？	用病问治疗方案
小便痛偶尔有灼热感轻微尿急是怎么回事	用症状问病
颈椎病好治疗吗	用病问治疗方案
小孩感冒咳嗽十天发烧六天怎么办？	用病问治疗方案
我早孕，哪种流产方式安全？	用病问治疗方案
胆结石了怎么办？	用病问治疗方案
乳腺增生了怎么办？	用病问治疗方案
反流性食管炎怎么治疗?	用病问治疗方案
月经不调不来月经有何办法吗	用病问治疗方案
小腹左侧隐痛是什么妇科炎	用症状问病
指甲里面有黑块不疼是黑色素吗	用症状问病
肚子上突然长了像烫了一样的包严重吗	用症状问病
出现眼睛看东西模糊和流泪情况是为什么	用症状问病
嘴唇上长了大包肿大麻疼不痒是怎么回事	用症状问病
同房后下面痒流水消炎就可以了吗？	用病问治疗方案
脖子后面一块长疙瘩是啥东西	用症状问病
鼻翼长了个痘痘是啥东西	用症状问病
肚脐眼往下左侧一按就疼是为啥	用症状问病
宝宝2岁打点滴10多天了还是反复发烧怎么回事》	用病问治疗方案
患了宫颈糜烂要治疗吗？	用病问治疗方案
小腿上长个疙瘩有脓血水怎么改善	用症状问病
